%YAML 1.1
%TAG !u! tag:unity3d.com,2011:
--- !u!29 &1
OcclusionCullingSettings:
  m_ObjectHideFlags: 0
  serializedVersion: 2
  m_OcclusionBakeSettings:
    smallestOccluder: 5
    smallestHole: 0.25
    backfaceThreshold: 100
  m_SceneGUID: 00000000000000000000000000000000
  m_OcclusionCullingData: {fileID: 0}
--- !u!104 &2
RenderSettings:
  m_ObjectHideFlags: 0
  serializedVersion: 9
  m_Fog: 1
  m_FogColor: {r: 0.5449827, g: 0.62598735, b: 0.7058823, a: 1}
  m_FogMode: 1
  m_FogDensity: 0.01
  m_LinearFogStart: 0
  m_LinearFogEnd: 250
  m_AmbientSkyColor: {r: 0.3430471, g: 0.3438581, b: 0.3455882, a: 1}
  m_AmbientEquatorColor: {r: 0.77205884, g: 0.77205884, b: 0.77205884, a: 1}
  m_AmbientGroundColor: {r: 0.5294118, g: 0.5294118, b: 0.5294118, a: 1}
  m_AmbientIntensity: 1.74
  m_AmbientMode: 1
  m_SubtractiveShadowColor: {r: 0.42, g: 0.478, b: 0.627, a: 1}
  m_SkyboxMaterial: {fileID: 2100000, guid: 6413a54c29d866642ac7511f59760dd5, type: 2}
  m_HaloStrength: 0.5
  m_FlareStrength: 1
  m_FlareFadeSpeed: 3
  m_HaloTexture: {fileID: 0}
  m_SpotCookie: {fileID: 10001, guid: 0000000000000000e000000000000000, type: 0}
  m_DefaultReflectionMode: 0
  m_DefaultReflectionResolution: 128
  m_ReflectionBounces: 1
  m_ReflectionIntensity: 1
  m_CustomReflection: {fileID: 8900000, guid: f7ec7e364db60294bbeace2856c60112, type: 3}
  m_Sun: {fileID: 762071236}
  m_IndirectSpecularColor: {r: 0.24190481, g: 0.32514086, b: 0.4144762, a: 1}
  m_UseRadianceAmbientProbe: 0
--- !u!157 &3
LightmapSettings:
  m_ObjectHideFlags: 0
  serializedVersion: 12
  m_GIWorkflowMode: 1
  m_GISettings:
    serializedVersion: 2
    m_BounceScale: 1
    m_IndirectOutputScale: 1
    m_AlbedoBoost: 1
    m_EnvironmentLightingMode: 0
    m_EnableBakedLightmaps: 0
    m_EnableRealtimeLightmaps: 0
  m_LightmapEditorSettings:
    serializedVersion: 12
    m_Resolution: 2
    m_BakeResolution: 40
    m_AtlasSize: 1024
    m_AO: 0
    m_AOMaxDistance: 1
    m_CompAOExponent: 1
    m_CompAOExponentDirect: 0
    m_ExtractAmbientOcclusion: 0
    m_Padding: 2
    m_LightmapParameters: {fileID: 0}
    m_LightmapsBakeMode: 1
    m_TextureCompression: 1
    m_FinalGather: 0
    m_FinalGatherFiltering: 1
    m_FinalGatherRayCount: 256
    m_ReflectionCompression: 2
    m_MixedBakeMode: 1
    m_BakeBackend: 0
    m_PVRSampling: 1
    m_PVRDirectSampleCount: 32
    m_PVRSampleCount: 512
    m_PVRBounces: 2
    m_PVREnvironmentSampleCount: 512
    m_PVREnvironmentReferencePointCount: 2048
    m_PVRFilteringMode: 0
    m_PVRDenoiserTypeDirect: 0
    m_PVRDenoiserTypeIndirect: 0
    m_PVRDenoiserTypeAO: 0
    m_PVRFilterTypeDirect: 0
    m_PVRFilterTypeIndirect: 0
    m_PVRFilterTypeAO: 0
    m_PVREnvironmentMIS: 0
    m_PVRCulling: 1
    m_PVRFilteringGaussRadiusDirect: 1
    m_PVRFilteringGaussRadiusIndirect: 5
    m_PVRFilteringGaussRadiusAO: 2
    m_PVRFilteringAtrousPositionSigmaDirect: 0.5
    m_PVRFilteringAtrousPositionSigmaIndirect: 2
    m_PVRFilteringAtrousPositionSigmaAO: 1
    m_ExportTrainingData: 0
    m_TrainingDataDestination: TrainingData
    m_LightProbeSampleCountMultiplier: 4
  m_LightingDataAsset: {fileID: 112000001, guid: 281c57df7b9f7fc4a8f9dee36e44c196,
    type: 2}
  m_LightingSettings: {fileID: 4890085278179872738, guid: a40de100bb7110e43b7fae7fb54ef1f9,
    type: 2}
--- !u!196 &4
NavMeshSettings:
  serializedVersion: 2
  m_ObjectHideFlags: 0
  m_BuildSettings:
    serializedVersion: 2
    agentTypeID: 0
    agentRadius: 0.5
    agentHeight: 2
    agentSlope: 45
    agentClimb: 0.4
    ledgeDropHeight: 0
    maxJumpAcrossDistance: 0
    minRegionArea: 2
    manualCellSize: 0
    cellSize: 0.16666667
    manualTileSize: 0
    tileSize: 256
    accuratePlacement: 0
    maxJobWorkers: 0
    preserveTilesOutsideBounds: 0
    debug:
      m_Flags: 0
  m_NavMeshData: {fileID: 0}
--- !u!4 &49279069 stripped
Transform:
  m_CorrespondingSourceObject: {fileID: 4339898394216490, guid: 6c9e41e24d2bc6b488c927f43944457b,
    type: 3}
  m_PrefabInstance: {fileID: 1601330936}
  m_PrefabAsset: {fileID: 0}
--- !u!1 &59135075
GameObject:
  m_ObjectHideFlags: 0
  m_CorrespondingSourceObject: {fileID: 0}
  m_PrefabInstance: {fileID: 0}
  m_PrefabAsset: {fileID: 0}
  serializedVersion: 6
  m_Component:
  - component: {fileID: 59135078}
  - component: {fileID: 59135077}
  - component: {fileID: 59135076}
  - component: {fileID: 59135079}
  m_Layer: 0
  m_Name: fake water
  m_TagString: Untagged
  m_Icon: {fileID: 0}
  m_NavMeshLayer: 0
  m_StaticEditorFlags: 0
  m_IsActive: 1
--- !u!23 &59135076
MeshRenderer:
  m_ObjectHideFlags: 0
  m_CorrespondingSourceObject: {fileID: 0}
  m_PrefabInstance: {fileID: 0}
  m_PrefabAsset: {fileID: 0}
  m_GameObject: {fileID: 59135075}
  m_Enabled: 1
  m_CastShadows: 1
  m_ReceiveShadows: 1
  m_DynamicOccludee: 1
  m_MotionVectors: 1
  m_LightProbeUsage: 1
  m_ReflectionProbeUsage: 1
  m_RayTracingMode: 2
  m_RayTraceProcedural: 0
  m_RenderingLayerMask: 1
  m_RendererPriority: 0
  m_Materials:
  - {fileID: 2100000, guid: 5e990a13fe1bf22488921a73c2814e7d, type: 2}
  m_StaticBatchInfo:
    firstSubMesh: 0
    subMeshCount: 0
  m_StaticBatchRoot: {fileID: 0}
  m_ProbeAnchor: {fileID: 0}
  m_LightProbeVolumeOverride: {fileID: 0}
  m_ScaleInLightmap: 1
  m_ReceiveGI: 1
  m_PreserveUVs: 1
  m_IgnoreNormalsForChartDetection: 0
  m_ImportantGI: 0
  m_StitchLightmapSeams: 1
  m_SelectedEditorRenderState: 3
  m_MinimumChartSize: 4
  m_AutoUVMaxDistance: 0.5
  m_AutoUVMaxAngle: 89
  m_LightmapParameters: {fileID: 0}
  m_SortingLayerID: 0
  m_SortingLayer: 0
  m_SortingOrder: 0
  m_AdditionalVertexStreams: {fileID: 0}
--- !u!33 &59135077
MeshFilter:
  m_ObjectHideFlags: 0
  m_CorrespondingSourceObject: {fileID: 0}
  m_PrefabInstance: {fileID: 0}
  m_PrefabAsset: {fileID: 0}
  m_GameObject: {fileID: 59135075}
  m_Mesh: {fileID: 10209, guid: 0000000000000000e000000000000000, type: 0}
--- !u!4 &59135078
Transform:
  m_ObjectHideFlags: 0
  m_CorrespondingSourceObject: {fileID: 0}
  m_PrefabInstance: {fileID: 0}
  m_PrefabAsset: {fileID: 0}
  m_GameObject: {fileID: 59135075}
  m_LocalRotation: {x: 0, y: 0, z: 0, w: 1}
  m_LocalPosition: {x: 154.3, y: 0.26, z: 156.9}
  m_LocalScale: {x: 19.265724, y: 19.265707, z: 19.265707}
  m_Children: []
  m_Father: {fileID: 0}
  m_RootOrder: 5
  m_LocalEulerAnglesHint: {x: 0, y: 0, z: 0}
--- !u!114 &59135079
MonoBehaviour:
  m_ObjectHideFlags: 0
  m_CorrespondingSourceObject: {fileID: 0}
  m_PrefabInstance: {fileID: 0}
  m_PrefabAsset: {fileID: 0}
  m_GameObject: {fileID: 59135075}
  m_Enabled: 1
  m_EditorHideFlags: 0
  m_Script: {fileID: 11500000, guid: 1b0624521c6edcf4f9902145e6a2cb71, type: 3}
  m_Name: 
  m_EditorClassIdentifier: 
  AnimatRate: {x: 0.02, y: -0.05}
--- !u!4 &115225443 stripped
Transform:
  m_CorrespondingSourceObject: {fileID: 400000, guid: 52a80cadc219314489b01f1b5a48639c,
    type: 3}
  m_PrefabInstance: {fileID: 1112658663}
  m_PrefabAsset: {fileID: 0}
--- !u!4 &153894099 stripped
Transform:
  m_CorrespondingSourceObject: {fileID: 400000, guid: 52a80cadc219314489b01f1b5a48639c,
    type: 3}
  m_PrefabInstance: {fileID: 1667119368}
  m_PrefabAsset: {fileID: 0}
--- !u!1001 &194797267
PrefabInstance:
  m_ObjectHideFlags: 0
  serializedVersion: 2
  m_Modification:
    m_TransformParent: {fileID: 870957649}
    m_Modifications:
    - target: {fileID: 100000, guid: 52a80cadc219314489b01f1b5a48639c, type: 3}
      propertyPath: m_Name
      value: shaft (5)
      objectReference: {fileID: 0}
    - target: {fileID: 100000, guid: 52a80cadc219314489b01f1b5a48639c, type: 3}
      propertyPath: m_IsActive
      value: 1
      objectReference: {fileID: 0}
    - target: {fileID: 400000, guid: 52a80cadc219314489b01f1b5a48639c, type: 3}
      propertyPath: m_RootOrder
      value: 5
      objectReference: {fileID: 0}
    - target: {fileID: 400000, guid: 52a80cadc219314489b01f1b5a48639c, type: 3}
      propertyPath: m_LocalScale.x
      value: 0.36443362
      objectReference: {fileID: 0}
    - target: {fileID: 400000, guid: 52a80cadc219314489b01f1b5a48639c, type: 3}
      propertyPath: m_LocalScale.y
      value: 0.87107897
      objectReference: {fileID: 0}
    - target: {fileID: 400000, guid: 52a80cadc219314489b01f1b5a48639c, type: 3}
      propertyPath: m_LocalScale.z
      value: 0.392443
      objectReference: {fileID: 0}
    - target: {fileID: 400000, guid: 52a80cadc219314489b01f1b5a48639c, type: 3}
      propertyPath: m_LocalPosition.x
      value: 164.77
      objectReference: {fileID: 0}
    - target: {fileID: 400000, guid: 52a80cadc219314489b01f1b5a48639c, type: 3}
      propertyPath: m_LocalPosition.y
      value: -0.93
      objectReference: {fileID: 0}
    - target: {fileID: 400000, guid: 52a80cadc219314489b01f1b5a48639c, type: 3}
      propertyPath: m_LocalPosition.z
      value: 147.88
      objectReference: {fileID: 0}
    - target: {fileID: 400000, guid: 52a80cadc219314489b01f1b5a48639c, type: 3}
      propertyPath: m_LocalRotation.w
      value: 0.9124623
      objectReference: {fileID: 0}
    - target: {fileID: 400000, guid: 52a80cadc219314489b01f1b5a48639c, type: 3}
      propertyPath: m_LocalRotation.x
      value: 0.053804375
      objectReference: {fileID: 0}
    - target: {fileID: 400000, guid: 52a80cadc219314489b01f1b5a48639c, type: 3}
      propertyPath: m_LocalRotation.y
      value: 0.38504657
      objectReference: {fileID: 0}
    - target: {fileID: 400000, guid: 52a80cadc219314489b01f1b5a48639c, type: 3}
      propertyPath: m_LocalRotation.z
      value: 0.12750258
      objectReference: {fileID: 0}
    - target: {fileID: 400000, guid: 52a80cadc219314489b01f1b5a48639c, type: 3}
      propertyPath: m_LocalEulerAnglesHint.y
      value: 45.758003
      objectReference: {fileID: 0}
    - target: {fileID: 400000, guid: 52a80cadc219314489b01f1b5a48639c, type: 3}
      propertyPath: m_LocalEulerAnglesHint.z
      value: 15.909
      objectReference: {fileID: 0}
    - target: {fileID: 2300000, guid: 52a80cadc219314489b01f1b5a48639c, type: 3}
      propertyPath: m_CastShadows
      value: 0
      objectReference: {fileID: 0}
    - target: {fileID: 2300000, guid: 52a80cadc219314489b01f1b5a48639c, type: 3}
      propertyPath: m_LightProbeUsage
      value: 0
      objectReference: {fileID: 0}
    - target: {fileID: 2300000, guid: 52a80cadc219314489b01f1b5a48639c, type: 3}
      propertyPath: m_Materials.Array.data[0]
      value: 
      objectReference: {fileID: 2100000, guid: 60c22c2cc1c23a341911b5d9a861c24f, type: 2}
    m_RemovedComponents: []
  m_SourcePrefab: {fileID: 100100000, guid: 52a80cadc219314489b01f1b5a48639c, type: 3}
--- !u!1001 &274759607
PrefabInstance:
  m_ObjectHideFlags: 0
  serializedVersion: 2
  m_Modification:
    m_TransformParent: {fileID: 499220631}
    m_Modifications:
    - target: {fileID: 1970681966781816, guid: 7d39a68237432ea41ae92c75eb21dcf4, type: 3}
      propertyPath: m_Name
      value: RedWood 4 (1)
      objectReference: {fileID: 0}
    - target: {fileID: 4339898394216490, guid: 7d39a68237432ea41ae92c75eb21dcf4, type: 3}
      propertyPath: m_RootOrder
      value: 2
      objectReference: {fileID: 0}
    - target: {fileID: 4339898394216490, guid: 7d39a68237432ea41ae92c75eb21dcf4, type: 3}
      propertyPath: m_LocalScale.x
      value: 1
      objectReference: {fileID: 0}
    - target: {fileID: 4339898394216490, guid: 7d39a68237432ea41ae92c75eb21dcf4, type: 3}
      propertyPath: m_LocalScale.y
      value: 1
      objectReference: {fileID: 0}
    - target: {fileID: 4339898394216490, guid: 7d39a68237432ea41ae92c75eb21dcf4, type: 3}
      propertyPath: m_LocalScale.z
      value: 1
      objectReference: {fileID: 0}
    - target: {fileID: 4339898394216490, guid: 7d39a68237432ea41ae92c75eb21dcf4, type: 3}
      propertyPath: m_LocalPosition.x
      value: 177.96
      objectReference: {fileID: 0}
    - target: {fileID: 4339898394216490, guid: 7d39a68237432ea41ae92c75eb21dcf4, type: 3}
      propertyPath: m_LocalPosition.y
      value: -1.78
      objectReference: {fileID: 0}
    - target: {fileID: 4339898394216490, guid: 7d39a68237432ea41ae92c75eb21dcf4, type: 3}
      propertyPath: m_LocalPosition.z
      value: 133.9
      objectReference: {fileID: 0}
    - target: {fileID: 4339898394216490, guid: 7d39a68237432ea41ae92c75eb21dcf4, type: 3}
      propertyPath: m_LocalRotation.w
      value: 0.42696828
      objectReference: {fileID: 0}
    - target: {fileID: 4339898394216490, guid: 7d39a68237432ea41ae92c75eb21dcf4, type: 3}
      propertyPath: m_LocalRotation.x
      value: 0.2994537
      objectReference: {fileID: 0}
    - target: {fileID: 4339898394216490, guid: 7d39a68237432ea41ae92c75eb21dcf4, type: 3}
      propertyPath: m_LocalRotation.y
      value: -0.65248275
      objectReference: {fileID: 0}
    - target: {fileID: 4339898394216490, guid: 7d39a68237432ea41ae92c75eb21dcf4, type: 3}
      propertyPath: m_LocalRotation.z
      value: 0.54981077
      objectReference: {fileID: 0}
    - target: {fileID: 4339898394216490, guid: 7d39a68237432ea41ae92c75eb21dcf4, type: 3}
      propertyPath: m_LocalEulerAnglesHint.x
      value: 76.705
      objectReference: {fileID: 0}
    - target: {fileID: 4339898394216490, guid: 7d39a68237432ea41ae92c75eb21dcf4, type: 3}
      propertyPath: m_LocalEulerAnglesHint.y
      value: -97.700005
      objectReference: {fileID: 0}
    - target: {fileID: 4339898394216490, guid: 7d39a68237432ea41ae92c75eb21dcf4, type: 3}
      propertyPath: m_LocalEulerAnglesHint.z
      value: 20.019001
      objectReference: {fileID: 0}
    m_RemovedComponents: []
  m_SourcePrefab: {fileID: 100100000, guid: 7d39a68237432ea41ae92c75eb21dcf4, type: 3}
--- !u!1001 &379598184
PrefabInstance:
  m_ObjectHideFlags: 0
  serializedVersion: 2
  m_Modification:
    m_TransformParent: {fileID: 870957649}
    m_Modifications:
    - target: {fileID: 100000, guid: 52a80cadc219314489b01f1b5a48639c, type: 3}
      propertyPath: m_Name
      value: shaft (4)
      objectReference: {fileID: 0}
    - target: {fileID: 100000, guid: 52a80cadc219314489b01f1b5a48639c, type: 3}
      propertyPath: m_IsActive
      value: 1
      objectReference: {fileID: 0}
    - target: {fileID: 400000, guid: 52a80cadc219314489b01f1b5a48639c, type: 3}
      propertyPath: m_RootOrder
      value: 4
      objectReference: {fileID: 0}
    - target: {fileID: 400000, guid: 52a80cadc219314489b01f1b5a48639c, type: 3}
      propertyPath: m_LocalScale.x
      value: 0.36443362
      objectReference: {fileID: 0}
    - target: {fileID: 400000, guid: 52a80cadc219314489b01f1b5a48639c, type: 3}
      propertyPath: m_LocalScale.y
      value: 0.87107897
      objectReference: {fileID: 0}
    - target: {fileID: 400000, guid: 52a80cadc219314489b01f1b5a48639c, type: 3}
      propertyPath: m_LocalScale.z
      value: 0.392443
      objectReference: {fileID: 0}
    - target: {fileID: 400000, guid: 52a80cadc219314489b01f1b5a48639c, type: 3}
      propertyPath: m_LocalPosition.x
      value: 169.32
      objectReference: {fileID: 0}
    - target: {fileID: 400000, guid: 52a80cadc219314489b01f1b5a48639c, type: 3}
      propertyPath: m_LocalPosition.y
      value: -0.93
      objectReference: {fileID: 0}
    - target: {fileID: 400000, guid: 52a80cadc219314489b01f1b5a48639c, type: 3}
      propertyPath: m_LocalPosition.z
      value: 125.44
      objectReference: {fileID: 0}
    - target: {fileID: 400000, guid: 52a80cadc219314489b01f1b5a48639c, type: 3}
      propertyPath: m_LocalRotation.w
      value: 0.9124623
      objectReference: {fileID: 0}
    - target: {fileID: 400000, guid: 52a80cadc219314489b01f1b5a48639c, type: 3}
      propertyPath: m_LocalRotation.x
      value: 0.053804375
      objectReference: {fileID: 0}
    - target: {fileID: 400000, guid: 52a80cadc219314489b01f1b5a48639c, type: 3}
      propertyPath: m_LocalRotation.y
      value: 0.38504657
      objectReference: {fileID: 0}
    - target: {fileID: 400000, guid: 52a80cadc219314489b01f1b5a48639c, type: 3}
      propertyPath: m_LocalRotation.z
      value: 0.12750258
      objectReference: {fileID: 0}
    - target: {fileID: 400000, guid: 52a80cadc219314489b01f1b5a48639c, type: 3}
      propertyPath: m_LocalEulerAnglesHint.y
      value: 45.758003
      objectReference: {fileID: 0}
    - target: {fileID: 400000, guid: 52a80cadc219314489b01f1b5a48639c, type: 3}
      propertyPath: m_LocalEulerAnglesHint.z
      value: 15.909
      objectReference: {fileID: 0}
    - target: {fileID: 2300000, guid: 52a80cadc219314489b01f1b5a48639c, type: 3}
      propertyPath: m_CastShadows
      value: 0
      objectReference: {fileID: 0}
    - target: {fileID: 2300000, guid: 52a80cadc219314489b01f1b5a48639c, type: 3}
      propertyPath: m_LightProbeUsage
      value: 0
      objectReference: {fileID: 0}
    - target: {fileID: 2300000, guid: 52a80cadc219314489b01f1b5a48639c, type: 3}
      propertyPath: m_Materials.Array.data[0]
      value: 
      objectReference: {fileID: 2100000, guid: 60c22c2cc1c23a341911b5d9a861c24f, type: 2}
    m_RemovedComponents: []
  m_SourcePrefab: {fileID: 100100000, guid: 52a80cadc219314489b01f1b5a48639c, type: 3}
--- !u!4 &428570016 stripped
Transform:
  m_CorrespondingSourceObject: {fileID: 400000, guid: 52a80cadc219314489b01f1b5a48639c,
    type: 3}
  m_PrefabInstance: {fileID: 194797267}
  m_PrefabAsset: {fileID: 0}
--- !u!4 &437395128 stripped
Transform:
  m_CorrespondingSourceObject: {fileID: 400000, guid: 52a80cadc219314489b01f1b5a48639c,
    type: 3}
  m_PrefabInstance: {fileID: 811201487}
  m_PrefabAsset: {fileID: 0}
--- !u!4 &497832452 stripped
Transform:
  m_CorrespondingSourceObject: {fileID: 400000, guid: 52a80cadc219314489b01f1b5a48639c,
    type: 3}
  m_PrefabInstance: {fileID: 1933427603}
  m_PrefabAsset: {fileID: 0}
--- !u!1 &499220630
GameObject:
  m_ObjectHideFlags: 0
  m_CorrespondingSourceObject: {fileID: 0}
  m_PrefabInstance: {fileID: 0}
  m_PrefabAsset: {fileID: 0}
  serializedVersion: 6
  m_Component:
  - component: {fileID: 499220631}
  m_Layer: 0
  m_Name: fall tree
  m_TagString: Untagged
  m_Icon: {fileID: 0}
  m_NavMeshLayer: 0
  m_StaticEditorFlags: 0
  m_IsActive: 1
--- !u!4 &499220631
Transform:
  m_ObjectHideFlags: 0
  m_CorrespondingSourceObject: {fileID: 0}
  m_PrefabInstance: {fileID: 0}
  m_PrefabAsset: {fileID: 0}
  m_GameObject: {fileID: 499220630}
  m_LocalRotation: {x: 0, y: 0, z: 0, w: 1}
  m_LocalPosition: {x: 0, y: 0, z: 0}
  m_LocalScale: {x: 1, y: 1, z: 1}
  m_Children:
  - {fileID: 49279069}
  - {fileID: 1606271561}
  - {fileID: 1924164511}
  m_Father: {fileID: 0}
  m_RootOrder: 8
  m_LocalEulerAnglesHint: {x: 0, y: 0, z: 0}
--- !u!1 &588382913
GameObject:
  m_ObjectHideFlags: 0
  m_CorrespondingSourceObject: {fileID: 0}
  m_PrefabInstance: {fileID: 0}
  m_PrefabAsset: {fileID: 0}
  serializedVersion: 6
  m_Component:
  - component: {fileID: 588382916}
  - component: {fileID: 588382915}
  - component: {fileID: 588382914}
  m_Layer: 0
  m_Name: Terrain
  m_TagString: Untagged
  m_Icon: {fileID: 0}
  m_NavMeshLayer: 0
  m_StaticEditorFlags: 4294967295
  m_IsActive: 1
--- !u!154 &588382914
TerrainCollider:
  m_ObjectHideFlags: 0
  m_CorrespondingSourceObject: {fileID: 0}
  m_PrefabInstance: {fileID: 0}
  m_PrefabAsset: {fileID: 0}
  m_GameObject: {fileID: 588382913}
  m_Material: {fileID: 0}
  m_Enabled: 1
  m_TerrainData: {fileID: 15600000, guid: d486a6d8040efc6458c17817e8b77dc1, type: 2}
  m_EnableTreeColliders: 1
--- !u!218 &588382915
Terrain:
  m_ObjectHideFlags: 0
  m_CorrespondingSourceObject: {fileID: 0}
  m_PrefabInstance: {fileID: 0}
  m_PrefabAsset: {fileID: 0}
  m_GameObject: {fileID: 588382913}
  m_Enabled: 1
  serializedVersion: 6
  m_TerrainData: {fileID: 15600000, guid: d486a6d8040efc6458c17817e8b77dc1, type: 2}
  m_TreeDistance: 2000
  m_TreeBillboardDistance: 286
  m_TreeCrossFadeLength: 7
  m_TreeMaximumFullLODCount: 50
  m_DetailObjectDistance: 83
  m_DetailObjectDensity: 0.415
  m_HeightmapPixelError: 200
  m_SplatMapDistance: 220
  m_HeightmapMaximumLOD: 0
  m_ShadowCastingMode: 2
  m_DrawHeightmap: 1
  m_DrawInstanced: 0
  m_DrawTreesAndFoliage: 1
  m_ReflectionProbeUsage: 1
  m_MaterialTemplate: {fileID: 2100000, guid: e3694e4eb82c06d4b8309907deac269a, type: 2}
  m_BakeLightProbesForTrees: 1
  m_PreserveTreePrototypeLayers: 0
  m_DeringLightProbesForTrees: 1
  m_ScaleInLightmap: 0.0512
  m_LightmapParameters: {fileID: 15203, guid: 0000000000000000f000000000000000, type: 0}
  m_GroupingID: 0
  m_RenderingLayerMask: 1
  m_AllowAutoConnect: 0
--- !u!4 &588382916
Transform:
  m_ObjectHideFlags: 0
  m_CorrespondingSourceObject: {fileID: 0}
  m_PrefabInstance: {fileID: 0}
  m_PrefabAsset: {fileID: 0}
  m_GameObject: {fileID: 588382913}
  m_LocalRotation: {x: 0, y: 0, z: 0, w: 1}
  m_LocalPosition: {x: 0, y: 0, z: 0}
  m_LocalScale: {x: 1, y: 1, z: 1}
  m_Children: []
  m_Father: {fileID: 0}
  m_RootOrder: 2
  m_LocalEulerAnglesHint: {x: 0, y: 0, z: 0}
--- !u!1 &724568980
GameObject:
  m_ObjectHideFlags: 0
  m_CorrespondingSourceObject: {fileID: 0}
  m_PrefabInstance: {fileID: 0}
  m_PrefabAsset: {fileID: 0}
  serializedVersion: 6
  m_Component:
  - component: {fileID: 724568982}
  - component: {fileID: 724568981}
  m_Layer: 0
  m_Name: reflect
  m_TagString: Untagged
  m_Icon: {fileID: 0}
  m_NavMeshLayer: 0
  m_StaticEditorFlags: 0
  m_IsActive: 1
--- !u!215 &724568981
ReflectionProbe:
  m_ObjectHideFlags: 0
  m_CorrespondingSourceObject: {fileID: 0}
  m_PrefabInstance: {fileID: 0}
  m_PrefabAsset: {fileID: 0}
  m_GameObject: {fileID: 724568980}
  m_Enabled: 1
  serializedVersion: 2
  m_Type: 0
  m_Mode: 0
  m_RefreshMode: 0
  m_TimeSlicingMode: 0
  m_Resolution: 256
  m_UpdateFrequency: 0
  m_BoxSize: {x: 250, y: 250, z: 250}
  m_BoxOffset: {x: 0, y: 0, z: 0}
  m_NearClip: 0.3
  m_FarClip: 1000
  m_ShadowDistance: 100
  m_ClearFlags: 1
  m_BackGroundColor: {r: 0.19215687, g: 0.3019608, b: 0.4745098, a: 0}
  m_CullingMask:
    serializedVersion: 2
    m_Bits: 4294967295
  m_IntensityMultiplier: 1
  m_BlendDistance: 1
  m_HDR: 1
  m_BoxProjection: 0
  m_RenderDynamicObjects: 0
  m_UseOcclusionCulling: 1
  m_Importance: 1
  m_CustomBakedTexture: {fileID: 0}
--- !u!4 &724568982
Transform:
  m_ObjectHideFlags: 0
  m_CorrespondingSourceObject: {fileID: 0}
  m_PrefabInstance: {fileID: 0}
  m_PrefabAsset: {fileID: 0}
  m_GameObject: {fileID: 724568980}
  m_LocalRotation: {x: 0, y: 0, z: 0, w: 1}
  m_LocalPosition: {x: 119.96394, y: 5, z: 189.47238}
  m_LocalScale: {x: 1, y: 1, z: 1}
  m_Children: []
  m_Father: {fileID: 0}
  m_RootOrder: 6
  m_LocalEulerAnglesHint: {x: 0, y: 0, z: 0}
--- !u!1001 &749722265
PrefabInstance:
  m_ObjectHideFlags: 0
  serializedVersion: 2
  m_Modification:
    m_TransformParent: {fileID: 499220631}
    m_Modifications:
    - target: {fileID: 4339898394216490, guid: 7d39a68237432ea41ae92c75eb21dcf4, type: 3}
      propertyPath: m_RootOrder
      value: 1
      objectReference: {fileID: 0}
    - target: {fileID: 4339898394216490, guid: 7d39a68237432ea41ae92c75eb21dcf4, type: 3}
      propertyPath: m_LocalScale.x
      value: 1
      objectReference: {fileID: 0}
    - target: {fileID: 4339898394216490, guid: 7d39a68237432ea41ae92c75eb21dcf4, type: 3}
      propertyPath: m_LocalScale.z
      value: 1
      objectReference: {fileID: 0}
    - target: {fileID: 4339898394216490, guid: 7d39a68237432ea41ae92c75eb21dcf4, type: 3}
      propertyPath: m_LocalPosition.x
      value: 135.53
      objectReference: {fileID: 0}
    - target: {fileID: 4339898394216490, guid: 7d39a68237432ea41ae92c75eb21dcf4, type: 3}
      propertyPath: m_LocalPosition.y
      value: -1.16
      objectReference: {fileID: 0}
    - target: {fileID: 4339898394216490, guid: 7d39a68237432ea41ae92c75eb21dcf4, type: 3}
      propertyPath: m_LocalPosition.z
      value: 146.15
      objectReference: {fileID: 0}
    - target: {fileID: 4339898394216490, guid: 7d39a68237432ea41ae92c75eb21dcf4, type: 3}
      propertyPath: m_LocalRotation.w
      value: 0.80446213
      objectReference: {fileID: 0}
    - target: {fileID: 4339898394216490, guid: 7d39a68237432ea41ae92c75eb21dcf4, type: 3}
      propertyPath: m_LocalRotation.x
      value: 0.5428957
      objectReference: {fileID: 0}
    - target: {fileID: 4339898394216490, guid: 7d39a68237432ea41ae92c75eb21dcf4, type: 3}
      propertyPath: m_LocalRotation.y
      value: 0.21534061
      objectReference: {fileID: 0}
    - target: {fileID: 4339898394216490, guid: 7d39a68237432ea41ae92c75eb21dcf4, type: 3}
      propertyPath: m_LocalRotation.z
      value: -0.10832085
      objectReference: {fileID: 0}
    - target: {fileID: 4339898394216490, guid: 7d39a68237432ea41ae92c75eb21dcf4, type: 3}
      propertyPath: m_LocalEulerAnglesHint.x
      value: 66.945
      objectReference: {fileID: 0}
    - target: {fileID: 4339898394216490, guid: 7d39a68237432ea41ae92c75eb21dcf4, type: 3}
      propertyPath: m_LocalEulerAnglesHint.y
      value: 35.760002
      objectReference: {fileID: 0}
    - target: {fileID: 4339898394216490, guid: 7d39a68237432ea41ae92c75eb21dcf4, type: 3}
      propertyPath: m_LocalEulerAnglesHint.z
      value: 8.744
      objectReference: {fileID: 0}
    m_RemovedComponents: []
  m_SourcePrefab: {fileID: 100100000, guid: 7d39a68237432ea41ae92c75eb21dcf4, type: 3}
--- !u!1 &762071235
GameObject:
  m_ObjectHideFlags: 0
  m_CorrespondingSourceObject: {fileID: 0}
  m_PrefabInstance: {fileID: 0}
  m_PrefabAsset: {fileID: 0}
  serializedVersion: 6
  m_Component:
  - component: {fileID: 762071237}
  - component: {fileID: 762071236}
  - component: {fileID: 762071238}
  m_Layer: 0
  m_Name: sun
  m_TagString: Untagged
  m_Icon: {fileID: 0}
  m_NavMeshLayer: 0
  m_StaticEditorFlags: 0
  m_IsActive: 1
--- !u!108 &762071236
Light:
  m_ObjectHideFlags: 0
  m_CorrespondingSourceObject: {fileID: 0}
  m_PrefabInstance: {fileID: 0}
  m_PrefabAsset: {fileID: 0}
  m_GameObject: {fileID: 762071235}
  m_Enabled: 1
  serializedVersion: 10
  m_Type: 1
  m_Shape: 0
  m_Color: {r: 0.9632353, g: 0.95395464, b: 0.8286657, a: 1}
  m_Intensity: 3.45
  m_Range: 10
  m_SpotAngle: 30
  m_InnerSpotAngle: 21.80208
  m_CookieSize: 10
  m_Shadows:
    m_Type: 2
    m_Resolution: -1
    m_CustomResolution: -1
    m_Strength: 1
    m_Bias: 0.05
    m_NormalBias: 0.4
    m_NearPlane: 0.2
    m_CullingMatrixOverride:
      e00: 1
      e01: 0
      e02: 0
      e03: 0
      e10: 0
      e11: 1
      e12: 0
      e13: 0
      e20: 0
      e21: 0
      e22: 1
      e23: 0
      e30: 0
      e31: 0
      e32: 0
      e33: 1
    m_UseCullingMatrixOverride: 0
  m_Cookie: {fileID: 0}
  m_DrawHalo: 0
  m_Flare: {fileID: 0}
  m_RenderMode: 0
  m_CullingMask:
    serializedVersion: 2
    m_Bits: 4294967295
  m_RenderingLayerMask: 1
  m_Lightmapping: 4
  m_LightShadowCasterMode: 0
  m_AreaSize: {x: 1, y: 1}
  m_BounceIntensity: 1
  m_ColorTemperature: 6570
  m_UseColorTemperature: 0
  m_BoundingSphereOverride: {x: 0, y: 0, z: 0, w: 0}
  m_UseBoundingSphereOverride: 0
  m_ShadowRadius: 0
  m_ShadowAngle: 0
--- !u!4 &762071237
Transform:
  m_ObjectHideFlags: 0
  m_CorrespondingSourceObject: {fileID: 0}
  m_PrefabInstance: {fileID: 0}
  m_PrefabAsset: {fileID: 0}
  m_GameObject: {fileID: 762071235}
  m_LocalRotation: {x: 0.81461966, y: -0.18090118, z: 0.3395106, w: 0.43405318}
  m_LocalPosition: {x: 0, y: 3, z: 0}
  m_LocalScale: {x: 1, y: 1, z: 1}
  m_Children: []
  m_Father: {fileID: 0}
  m_RootOrder: 1
  m_LocalEulerAnglesHint: {x: 123.9, y: -45.25, z: 0}
--- !u!123 &762071238
LensFlare:
  m_ObjectHideFlags: 0
  m_CorrespondingSourceObject: {fileID: 0}
  m_PrefabInstance: {fileID: 0}
  m_PrefabAsset: {fileID: 0}
  m_GameObject: {fileID: 762071235}
  m_Enabled: 1
  m_Flare: {fileID: 12100000, guid: 09ebe82dbd1113c3d000dc0b8d76c639, type: 2}
  m_Color: {r: 1, g: 1, b: 1, a: 0.278}
  m_Brightness: 2
  m_FadeSpeed: 30
  m_IgnoreLayers:
    serializedVersion: 2
    m_Bits: 6
  m_Directional: 1
--- !u!1001 &794036590
PrefabInstance:
  m_ObjectHideFlags: 0
  serializedVersion: 2
  m_Modification:
    m_TransformParent: {fileID: 870957649}
    m_Modifications:
    - target: {fileID: 100000, guid: 52a80cadc219314489b01f1b5a48639c, type: 3}
      propertyPath: m_Name
      value: shaft (2)
      objectReference: {fileID: 0}
    - target: {fileID: 100000, guid: 52a80cadc219314489b01f1b5a48639c, type: 3}
      propertyPath: m_IsActive
      value: 1
      objectReference: {fileID: 0}
    - target: {fileID: 400000, guid: 52a80cadc219314489b01f1b5a48639c, type: 3}
      propertyPath: m_RootOrder
      value: 2
      objectReference: {fileID: 0}
    - target: {fileID: 400000, guid: 52a80cadc219314489b01f1b5a48639c, type: 3}
      propertyPath: m_LocalScale.x
      value: 0.5000001
      objectReference: {fileID: 0}
    - target: {fileID: 400000, guid: 52a80cadc219314489b01f1b5a48639c, type: 3}
      propertyPath: m_LocalScale.y
      value: 0.87107897
      objectReference: {fileID: 0}
    - target: {fileID: 400000, guid: 52a80cadc219314489b01f1b5a48639c, type: 3}
      propertyPath: m_LocalScale.z
      value: 0.5454999
      objectReference: {fileID: 0}
    - target: {fileID: 400000, guid: 52a80cadc219314489b01f1b5a48639c, type: 3}
      propertyPath: m_LocalPosition.x
      value: 147.05
      objectReference: {fileID: 0}
    - target: {fileID: 400000, guid: 52a80cadc219314489b01f1b5a48639c, type: 3}
      propertyPath: m_LocalPosition.y
      value: -3.9
      objectReference: {fileID: 0}
    - target: {fileID: 400000, guid: 52a80cadc219314489b01f1b5a48639c, type: 3}
      propertyPath: m_LocalPosition.z
      value: 139.81
      objectReference: {fileID: 0}
    - target: {fileID: 400000, guid: 52a80cadc219314489b01f1b5a48639c, type: 3}
      propertyPath: m_LocalRotation.w
      value: 0.9124623
      objectReference: {fileID: 0}
    - target: {fileID: 400000, guid: 52a80cadc219314489b01f1b5a48639c, type: 3}
      propertyPath: m_LocalRotation.x
      value: 0.053804375
      objectReference: {fileID: 0}
    - target: {fileID: 400000, guid: 52a80cadc219314489b01f1b5a48639c, type: 3}
      propertyPath: m_LocalRotation.y
      value: 0.38504657
      objectReference: {fileID: 0}
    - target: {fileID: 400000, guid: 52a80cadc219314489b01f1b5a48639c, type: 3}
      propertyPath: m_LocalRotation.z
      value: 0.12750258
      objectReference: {fileID: 0}
    - target: {fileID: 400000, guid: 52a80cadc219314489b01f1b5a48639c, type: 3}
      propertyPath: m_LocalEulerAnglesHint.y
      value: 45.758003
      objectReference: {fileID: 0}
    - target: {fileID: 400000, guid: 52a80cadc219314489b01f1b5a48639c, type: 3}
      propertyPath: m_LocalEulerAnglesHint.z
      value: 15.909
      objectReference: {fileID: 0}
    - target: {fileID: 2300000, guid: 52a80cadc219314489b01f1b5a48639c, type: 3}
      propertyPath: m_CastShadows
      value: 0
      objectReference: {fileID: 0}
    - target: {fileID: 2300000, guid: 52a80cadc219314489b01f1b5a48639c, type: 3}
      propertyPath: m_LightProbeUsage
      value: 0
      objectReference: {fileID: 0}
    - target: {fileID: 2300000, guid: 52a80cadc219314489b01f1b5a48639c, type: 3}
      propertyPath: m_Materials.Array.data[0]
      value: 
      objectReference: {fileID: 2100000, guid: 60c22c2cc1c23a341911b5d9a861c24f, type: 2}
    m_RemovedComponents: []
  m_SourcePrefab: {fileID: 100100000, guid: 52a80cadc219314489b01f1b5a48639c, type: 3}
--- !u!1001 &811201487
PrefabInstance:
  m_ObjectHideFlags: 0
  serializedVersion: 2
  m_Modification:
    m_TransformParent: {fileID: 870957649}
    m_Modifications:
    - target: {fileID: 100000, guid: 52a80cadc219314489b01f1b5a48639c, type: 3}
      propertyPath: m_IsActive
      value: 1
      objectReference: {fileID: 0}
    - target: {fileID: 400000, guid: 52a80cadc219314489b01f1b5a48639c, type: 3}
      propertyPath: m_RootOrder
      value: 0
      objectReference: {fileID: 0}
    - target: {fileID: 400000, guid: 52a80cadc219314489b01f1b5a48639c, type: 3}
      propertyPath: m_LocalScale.x
      value: 0.36443362
      objectReference: {fileID: 0}
    - target: {fileID: 400000, guid: 52a80cadc219314489b01f1b5a48639c, type: 3}
      propertyPath: m_LocalScale.y
      value: 0.87107897
      objectReference: {fileID: 0}
    - target: {fileID: 400000, guid: 52a80cadc219314489b01f1b5a48639c, type: 3}
      propertyPath: m_LocalScale.z
      value: 0.392443
      objectReference: {fileID: 0}
    - target: {fileID: 400000, guid: 52a80cadc219314489b01f1b5a48639c, type: 3}
      propertyPath: m_LocalPosition.x
      value: 156.1
      objectReference: {fileID: 0}
    - target: {fileID: 400000, guid: 52a80cadc219314489b01f1b5a48639c, type: 3}
      propertyPath: m_LocalPosition.y
      value: -3.9
      objectReference: {fileID: 0}
    - target: {fileID: 400000, guid: 52a80cadc219314489b01f1b5a48639c, type: 3}
      propertyPath: m_LocalPosition.z
      value: 134.5
      objectReference: {fileID: 0}
    - target: {fileID: 400000, guid: 52a80cadc219314489b01f1b5a48639c, type: 3}
      propertyPath: m_LocalRotation.w
      value: 0.9124623
      objectReference: {fileID: 0}
    - target: {fileID: 400000, guid: 52a80cadc219314489b01f1b5a48639c, type: 3}
      propertyPath: m_LocalRotation.x
      value: 0.053804375
      objectReference: {fileID: 0}
    - target: {fileID: 400000, guid: 52a80cadc219314489b01f1b5a48639c, type: 3}
      propertyPath: m_LocalRotation.y
      value: 0.38504657
      objectReference: {fileID: 0}
    - target: {fileID: 400000, guid: 52a80cadc219314489b01f1b5a48639c, type: 3}
      propertyPath: m_LocalRotation.z
      value: 0.12750258
      objectReference: {fileID: 0}
    - target: {fileID: 400000, guid: 52a80cadc219314489b01f1b5a48639c, type: 3}
      propertyPath: m_LocalEulerAnglesHint.y
      value: 45.758003
      objectReference: {fileID: 0}
    - target: {fileID: 400000, guid: 52a80cadc219314489b01f1b5a48639c, type: 3}
      propertyPath: m_LocalEulerAnglesHint.z
      value: 15.909
      objectReference: {fileID: 0}
    - target: {fileID: 2300000, guid: 52a80cadc219314489b01f1b5a48639c, type: 3}
      propertyPath: m_CastShadows
      value: 0
      objectReference: {fileID: 0}
    - target: {fileID: 2300000, guid: 52a80cadc219314489b01f1b5a48639c, type: 3}
      propertyPath: m_LightProbeUsage
      value: 0
      objectReference: {fileID: 0}
    - target: {fileID: 2300000, guid: 52a80cadc219314489b01f1b5a48639c, type: 3}
      propertyPath: m_Materials.Array.data[0]
      value: 
      objectReference: {fileID: 2100000, guid: 60c22c2cc1c23a341911b5d9a861c24f, type: 2}
    m_RemovedComponents: []
  m_SourcePrefab: {fileID: 100100000, guid: 52a80cadc219314489b01f1b5a48639c, type: 3}
--- !u!1 &870957648
GameObject:
  m_ObjectHideFlags: 0
  m_CorrespondingSourceObject: {fileID: 0}
  m_PrefabInstance: {fileID: 0}
  m_PrefabAsset: {fileID: 0}
  serializedVersion: 6
  m_Component:
  - component: {fileID: 870957649}
  m_Layer: 0
  m_Name: fake shaft
  m_TagString: Untagged
  m_Icon: {fileID: 0}
  m_NavMeshLayer: 0
  m_StaticEditorFlags: 0
  m_IsActive: 1
--- !u!4 &870957649
Transform:
  m_ObjectHideFlags: 0
  m_CorrespondingSourceObject: {fileID: 0}
  m_PrefabInstance: {fileID: 0}
  m_PrefabAsset: {fileID: 0}
  m_GameObject: {fileID: 870957648}
  m_LocalRotation: {x: 0, y: 0, z: 0, w: 1}
  m_LocalPosition: {x: 0, y: 0, z: 0}
  m_LocalScale: {x: 1, y: 1, z: 1}
  m_Children:
  - {fileID: 437395128}
  - {fileID: 1014759016}
  - {fileID: 2115914665}
  - {fileID: 153894099}
  - {fileID: 1724387578}
  - {fileID: 428570016}
  - {fileID: 115225443}
  - {fileID: 1737556824}
  - {fileID: 497832452}
  m_Father: {fileID: 0}
  m_RootOrder: 7
  m_LocalEulerAnglesHint: {x: 0, y: 0, z: 0}
--- !u!4 &916860963 stripped
Transform:
  m_CorrespondingSourceObject: {fileID: 4307756348346272, guid: 2003259857fd3f940bcd53bbb9131ca9,
    type: 3}
  m_PrefabInstance: {fileID: 1266382045}
  m_PrefabAsset: {fileID: 0}
--- !u!1001 &992372822
PrefabInstance:
  m_ObjectHideFlags: 0
  serializedVersion: 2
  m_Modification:
    m_TransformParent: {fileID: 0}
    m_Modifications:
    - target: {fileID: 1818259002910534, guid: 01a5a386ebfa7284dbbb737167f06b9d, type: 3}
      propertyPath: m_IsActive
      value: 0
      objectReference: {fileID: 0}
    - target: {fileID: 224490915283601222, guid: 01a5a386ebfa7284dbbb737167f06b9d,
        type: 3}
      propertyPath: m_AnchorMax.y
      value: 0
      objectReference: {fileID: 0}
    - target: {fileID: 224490915283601222, guid: 01a5a386ebfa7284dbbb737167f06b9d,
        type: 3}
      propertyPath: m_AnchorMin.y
      value: 0
      objectReference: {fileID: 0}
    - target: {fileID: 224490915283601222, guid: 01a5a386ebfa7284dbbb737167f06b9d,
        type: 3}
      propertyPath: m_SizeDelta.x
      value: 0
      objectReference: {fileID: 0}
    - target: {fileID: 224490915283601222, guid: 01a5a386ebfa7284dbbb737167f06b9d,
        type: 3}
      propertyPath: m_SizeDelta.y
      value: 0
      objectReference: {fileID: 0}
    - target: {fileID: 224490915283601222, guid: 01a5a386ebfa7284dbbb737167f06b9d,
        type: 3}
      propertyPath: m_AnchoredPosition.x
      value: 0
      objectReference: {fileID: 0}
    - target: {fileID: 224490915283601222, guid: 01a5a386ebfa7284dbbb737167f06b9d,
        type: 3}
      propertyPath: m_AnchoredPosition.y
      value: 0
      objectReference: {fileID: 0}
    - target: {fileID: 224523950255836048, guid: 01a5a386ebfa7284dbbb737167f06b9d,
        type: 3}
      propertyPath: m_AnchorMax.y
      value: 0
      objectReference: {fileID: 0}
    - target: {fileID: 224523950255836048, guid: 01a5a386ebfa7284dbbb737167f06b9d,
        type: 3}
      propertyPath: m_AnchorMin.y
      value: 0
      objectReference: {fileID: 0}
    - target: {fileID: 224523950255836048, guid: 01a5a386ebfa7284dbbb737167f06b9d,
        type: 3}
      propertyPath: m_SizeDelta.x
      value: 0
      objectReference: {fileID: 0}
    - target: {fileID: 224523950255836048, guid: 01a5a386ebfa7284dbbb737167f06b9d,
        type: 3}
      propertyPath: m_SizeDelta.y
      value: 0
      objectReference: {fileID: 0}
    - target: {fileID: 224523950255836048, guid: 01a5a386ebfa7284dbbb737167f06b9d,
        type: 3}
      propertyPath: m_AnchoredPosition.x
      value: 0
      objectReference: {fileID: 0}
    - target: {fileID: 224523950255836048, guid: 01a5a386ebfa7284dbbb737167f06b9d,
        type: 3}
      propertyPath: m_AnchoredPosition.y
      value: 0
      objectReference: {fileID: 0}
    - target: {fileID: 224661020526330896, guid: 01a5a386ebfa7284dbbb737167f06b9d,
        type: 3}
      propertyPath: m_Pivot.x
      value: 0
      objectReference: {fileID: 0}
    - target: {fileID: 224661020526330896, guid: 01a5a386ebfa7284dbbb737167f06b9d,
        type: 3}
      propertyPath: m_Pivot.y
      value: 0
      objectReference: {fileID: 0}
    - target: {fileID: 224661020526330896, guid: 01a5a386ebfa7284dbbb737167f06b9d,
        type: 3}
      propertyPath: m_RootOrder
      value: 4
      objectReference: {fileID: 0}
    - target: {fileID: 224661020526330896, guid: 01a5a386ebfa7284dbbb737167f06b9d,
        type: 3}
      propertyPath: m_AnchorMax.x
      value: 0
      objectReference: {fileID: 0}
    - target: {fileID: 224661020526330896, guid: 01a5a386ebfa7284dbbb737167f06b9d,
        type: 3}
      propertyPath: m_AnchorMax.y
      value: 0
      objectReference: {fileID: 0}
    - target: {fileID: 224661020526330896, guid: 01a5a386ebfa7284dbbb737167f06b9d,
        type: 3}
      propertyPath: m_AnchorMin.x
      value: 0
      objectReference: {fileID: 0}
    - target: {fileID: 224661020526330896, guid: 01a5a386ebfa7284dbbb737167f06b9d,
        type: 3}
      propertyPath: m_AnchorMin.y
      value: 0
      objectReference: {fileID: 0}
    - target: {fileID: 224661020526330896, guid: 01a5a386ebfa7284dbbb737167f06b9d,
        type: 3}
      propertyPath: m_SizeDelta.x
      value: 0
      objectReference: {fileID: 0}
    - target: {fileID: 224661020526330896, guid: 01a5a386ebfa7284dbbb737167f06b9d,
        type: 3}
      propertyPath: m_SizeDelta.y
      value: 0
      objectReference: {fileID: 0}
    - target: {fileID: 224661020526330896, guid: 01a5a386ebfa7284dbbb737167f06b9d,
        type: 3}
      propertyPath: m_LocalPosition.x
      value: 0
      objectReference: {fileID: 0}
    - target: {fileID: 224661020526330896, guid: 01a5a386ebfa7284dbbb737167f06b9d,
        type: 3}
      propertyPath: m_LocalPosition.y
      value: 0
      objectReference: {fileID: 0}
    - target: {fileID: 224661020526330896, guid: 01a5a386ebfa7284dbbb737167f06b9d,
        type: 3}
      propertyPath: m_LocalPosition.z
      value: 0
      objectReference: {fileID: 0}
    - target: {fileID: 224661020526330896, guid: 01a5a386ebfa7284dbbb737167f06b9d,
        type: 3}
      propertyPath: m_LocalRotation.w
      value: 1
      objectReference: {fileID: 0}
    - target: {fileID: 224661020526330896, guid: 01a5a386ebfa7284dbbb737167f06b9d,
        type: 3}
      propertyPath: m_LocalRotation.x
      value: 0
      objectReference: {fileID: 0}
    - target: {fileID: 224661020526330896, guid: 01a5a386ebfa7284dbbb737167f06b9d,
        type: 3}
      propertyPath: m_LocalRotation.y
      value: 0
      objectReference: {fileID: 0}
    - target: {fileID: 224661020526330896, guid: 01a5a386ebfa7284dbbb737167f06b9d,
        type: 3}
      propertyPath: m_LocalRotation.z
      value: 0
      objectReference: {fileID: 0}
    - target: {fileID: 224661020526330896, guid: 01a5a386ebfa7284dbbb737167f06b9d,
        type: 3}
      propertyPath: m_AnchoredPosition.x
      value: 0
      objectReference: {fileID: 0}
    - target: {fileID: 224661020526330896, guid: 01a5a386ebfa7284dbbb737167f06b9d,
        type: 3}
      propertyPath: m_AnchoredPosition.y
      value: 0
      objectReference: {fileID: 0}
    - target: {fileID: 224722919928412420, guid: 01a5a386ebfa7284dbbb737167f06b9d,
        type: 3}
      propertyPath: m_AnchorMax.y
      value: 0
      objectReference: {fileID: 0}
    - target: {fileID: 224722919928412420, guid: 01a5a386ebfa7284dbbb737167f06b9d,
        type: 3}
      propertyPath: m_AnchorMin.y
      value: 0
      objectReference: {fileID: 0}
    - target: {fileID: 224722919928412420, guid: 01a5a386ebfa7284dbbb737167f06b9d,
        type: 3}
      propertyPath: m_SizeDelta.x
      value: 0
      objectReference: {fileID: 0}
    - target: {fileID: 224722919928412420, guid: 01a5a386ebfa7284dbbb737167f06b9d,
        type: 3}
      propertyPath: m_SizeDelta.y
      value: 0
      objectReference: {fileID: 0}
    - target: {fileID: 224722919928412420, guid: 01a5a386ebfa7284dbbb737167f06b9d,
        type: 3}
      propertyPath: m_AnchoredPosition.x
      value: 0
      objectReference: {fileID: 0}
    - target: {fileID: 224722919928412420, guid: 01a5a386ebfa7284dbbb737167f06b9d,
        type: 3}
      propertyPath: m_AnchoredPosition.y
      value: 0
      objectReference: {fileID: 0}
    m_RemovedComponents: []
  m_SourcePrefab: {fileID: 100100000, guid: 01a5a386ebfa7284dbbb737167f06b9d, type: 3}
--- !u!4 &1014759016 stripped
Transform:
  m_CorrespondingSourceObject: {fileID: 400000, guid: 52a80cadc219314489b01f1b5a48639c,
    type: 3}
  m_PrefabInstance: {fileID: 1180147857}
  m_PrefabAsset: {fileID: 0}
--- !u!1001 &1112658663
PrefabInstance:
  m_ObjectHideFlags: 0
  serializedVersion: 2
  m_Modification:
    m_TransformParent: {fileID: 870957649}
    m_Modifications:
    - target: {fileID: 100000, guid: 52a80cadc219314489b01f1b5a48639c, type: 3}
      propertyPath: m_Name
      value: shaft (6)
      objectReference: {fileID: 0}
    - target: {fileID: 100000, guid: 52a80cadc219314489b01f1b5a48639c, type: 3}
      propertyPath: m_IsActive
      value: 1
      objectReference: {fileID: 0}
    - target: {fileID: 400000, guid: 52a80cadc219314489b01f1b5a48639c, type: 3}
      propertyPath: m_RootOrder
      value: 6
      objectReference: {fileID: 0}
    - target: {fileID: 400000, guid: 52a80cadc219314489b01f1b5a48639c, type: 3}
      propertyPath: m_LocalScale.x
      value: 0.5000001
      objectReference: {fileID: 0}
    - target: {fileID: 400000, guid: 52a80cadc219314489b01f1b5a48639c, type: 3}
      propertyPath: m_LocalScale.y
      value: 0.87107897
      objectReference: {fileID: 0}
    - target: {fileID: 400000, guid: 52a80cadc219314489b01f1b5a48639c, type: 3}
      propertyPath: m_LocalScale.z
      value: 0.5454999
      objectReference: {fileID: 0}
    - target: {fileID: 400000, guid: 52a80cadc219314489b01f1b5a48639c, type: 3}
      propertyPath: m_LocalPosition.x
      value: 122.83
      objectReference: {fileID: 0}
    - target: {fileID: 400000, guid: 52a80cadc219314489b01f1b5a48639c, type: 3}
      propertyPath: m_LocalPosition.y
      value: -3.9
      objectReference: {fileID: 0}
    - target: {fileID: 400000, guid: 52a80cadc219314489b01f1b5a48639c, type: 3}
      propertyPath: m_LocalPosition.z
      value: 164.25
      objectReference: {fileID: 0}
    - target: {fileID: 400000, guid: 52a80cadc219314489b01f1b5a48639c, type: 3}
      propertyPath: m_LocalRotation.w
      value: 0.9124623
      objectReference: {fileID: 0}
    - target: {fileID: 400000, guid: 52a80cadc219314489b01f1b5a48639c, type: 3}
      propertyPath: m_LocalRotation.x
      value: 0.053804375
      objectReference: {fileID: 0}
    - target: {fileID: 400000, guid: 52a80cadc219314489b01f1b5a48639c, type: 3}
      propertyPath: m_LocalRotation.y
      value: 0.38504657
      objectReference: {fileID: 0}
    - target: {fileID: 400000, guid: 52a80cadc219314489b01f1b5a48639c, type: 3}
      propertyPath: m_LocalRotation.z
      value: 0.12750258
      objectReference: {fileID: 0}
    - target: {fileID: 400000, guid: 52a80cadc219314489b01f1b5a48639c, type: 3}
      propertyPath: m_LocalEulerAnglesHint.y
      value: 45.758003
      objectReference: {fileID: 0}
    - target: {fileID: 400000, guid: 52a80cadc219314489b01f1b5a48639c, type: 3}
      propertyPath: m_LocalEulerAnglesHint.z
      value: 15.909
      objectReference: {fileID: 0}
    - target: {fileID: 2300000, guid: 52a80cadc219314489b01f1b5a48639c, type: 3}
      propertyPath: m_CastShadows
      value: 0
      objectReference: {fileID: 0}
    - target: {fileID: 2300000, guid: 52a80cadc219314489b01f1b5a48639c, type: 3}
      propertyPath: m_LightProbeUsage
      value: 0
      objectReference: {fileID: 0}
    - target: {fileID: 2300000, guid: 52a80cadc219314489b01f1b5a48639c, type: 3}
      propertyPath: m_Materials.Array.data[0]
      value: 
      objectReference: {fileID: 2100000, guid: 60c22c2cc1c23a341911b5d9a861c24f, type: 2}
    m_RemovedComponents: []
  m_SourcePrefab: {fileID: 100100000, guid: 52a80cadc219314489b01f1b5a48639c, type: 3}
--- !u!1001 &1147334638
PrefabInstance:
  m_ObjectHideFlags: 0
  serializedVersion: 2
  m_Modification:
    m_TransformParent: {fileID: 0}
    m_Modifications:
    - target: {fileID: 8652057231607733394, guid: 84dea2c6fb3a38544baad58886ac03b4,
        type: 3}
      propertyPath: m_RootOrder
      value: 9
      objectReference: {fileID: 0}
    - target: {fileID: 8652057231607733394, guid: 84dea2c6fb3a38544baad58886ac03b4,
        type: 3}
      propertyPath: m_LocalPosition.x
      value: 82.881
      objectReference: {fileID: 0}
    - target: {fileID: 8652057231607733394, guid: 84dea2c6fb3a38544baad58886ac03b4,
        type: 3}
      propertyPath: m_LocalPosition.y
      value: 10.34
      objectReference: {fileID: 0}
    - target: {fileID: 8652057231607733394, guid: 84dea2c6fb3a38544baad58886ac03b4,
        type: 3}
      propertyPath: m_LocalPosition.z
      value: 22.62
      objectReference: {fileID: 0}
    - target: {fileID: 8652057231607733394, guid: 84dea2c6fb3a38544baad58886ac03b4,
        type: 3}
      propertyPath: m_LocalRotation.w
      value: 0.99997276
      objectReference: {fileID: 0}
    - target: {fileID: 8652057231607733394, guid: 84dea2c6fb3a38544baad58886ac03b4,
        type: 3}
      propertyPath: m_LocalRotation.x
      value: -0.00738236
      objectReference: {fileID: 0}
    - target: {fileID: 8652057231607733394, guid: 84dea2c6fb3a38544baad58886ac03b4,
        type: 3}
      propertyPath: m_LocalRotation.y
      value: -0
      objectReference: {fileID: 0}
    - target: {fileID: 8652057231607733394, guid: 84dea2c6fb3a38544baad58886ac03b4,
        type: 3}
      propertyPath: m_LocalRotation.z
      value: -0
      objectReference: {fileID: 0}
    - target: {fileID: 8652057231607733394, guid: 84dea2c6fb3a38544baad58886ac03b4,
        type: 3}
      propertyPath: m_LocalEulerAnglesHint.x
      value: -0.846
      objectReference: {fileID: 0}
    - target: {fileID: 8652057231607733394, guid: 84dea2c6fb3a38544baad58886ac03b4,
        type: 3}
      propertyPath: m_LocalEulerAnglesHint.y
      value: 0
      objectReference: {fileID: 0}
    - target: {fileID: 8652057231607733394, guid: 84dea2c6fb3a38544baad58886ac03b4,
        type: 3}
      propertyPath: m_LocalEulerAnglesHint.z
      value: 0
      objectReference: {fileID: 0}
    - target: {fileID: 8652057231607733397, guid: 84dea2c6fb3a38544baad58886ac03b4,
        type: 3}
      propertyPath: far clip plane
      value: 500
      objectReference: {fileID: 0}
    - target: {fileID: 8652057231607733399, guid: 84dea2c6fb3a38544baad58886ac03b4,
        type: 3}
      propertyPath: m_Name
      value: Main Camera
      objectReference: {fileID: 0}
    m_RemovedComponents: []
  m_SourcePrefab: {fileID: 100100000, guid: 84dea2c6fb3a38544baad58886ac03b4, type: 3}
--- !u!1001 &1180147857
PrefabInstance:
  m_ObjectHideFlags: 0
  serializedVersion: 2
  m_Modification:
    m_TransformParent: {fileID: 870957649}
    m_Modifications:
    - target: {fileID: 100000, guid: 52a80cadc219314489b01f1b5a48639c, type: 3}
      propertyPath: m_Name
      value: shaft (1)
      objectReference: {fileID: 0}
    - target: {fileID: 100000, guid: 52a80cadc219314489b01f1b5a48639c, type: 3}
      propertyPath: m_IsActive
      value: 1
      objectReference: {fileID: 0}
    - target: {fileID: 400000, guid: 52a80cadc219314489b01f1b5a48639c, type: 3}
      propertyPath: m_RootOrder
      value: 1
      objectReference: {fileID: 0}
    - target: {fileID: 400000, guid: 52a80cadc219314489b01f1b5a48639c, type: 3}
      propertyPath: m_LocalScale.x
      value: 0.5000001
      objectReference: {fileID: 0}
    - target: {fileID: 400000, guid: 52a80cadc219314489b01f1b5a48639c, type: 3}
      propertyPath: m_LocalScale.y
      value: 0.87107897
      objectReference: {fileID: 0}
    - target: {fileID: 400000, guid: 52a80cadc219314489b01f1b5a48639c, type: 3}
      propertyPath: m_LocalScale.z
      value: 0.18402132
      objectReference: {fileID: 0}
    - target: {fileID: 400000, guid: 52a80cadc219314489b01f1b5a48639c, type: 3}
      propertyPath: m_LocalPosition.x
      value: 156.98
      objectReference: {fileID: 0}
    - target: {fileID: 400000, guid: 52a80cadc219314489b01f1b5a48639c, type: 3}
      propertyPath: m_LocalPosition.y
      value: -3.9
      objectReference: {fileID: 0}
    - target: {fileID: 400000, guid: 52a80cadc219314489b01f1b5a48639c, type: 3}
      propertyPath: m_LocalPosition.z
      value: 141.39
      objectReference: {fileID: 0}
    - target: {fileID: 400000, guid: 52a80cadc219314489b01f1b5a48639c, type: 3}
      propertyPath: m_LocalRotation.w
      value: 0.9124623
      objectReference: {fileID: 0}
    - target: {fileID: 400000, guid: 52a80cadc219314489b01f1b5a48639c, type: 3}
      propertyPath: m_LocalRotation.x
      value: 0.053804375
      objectReference: {fileID: 0}
    - target: {fileID: 400000, guid: 52a80cadc219314489b01f1b5a48639c, type: 3}
      propertyPath: m_LocalRotation.y
      value: 0.38504657
      objectReference: {fileID: 0}
    - target: {fileID: 400000, guid: 52a80cadc219314489b01f1b5a48639c, type: 3}
      propertyPath: m_LocalRotation.z
      value: 0.12750258
      objectReference: {fileID: 0}
    - target: {fileID: 400000, guid: 52a80cadc219314489b01f1b5a48639c, type: 3}
      propertyPath: m_LocalEulerAnglesHint.y
      value: 45.758003
      objectReference: {fileID: 0}
    - target: {fileID: 400000, guid: 52a80cadc219314489b01f1b5a48639c, type: 3}
      propertyPath: m_LocalEulerAnglesHint.z
      value: 15.909
      objectReference: {fileID: 0}
    - target: {fileID: 2300000, guid: 52a80cadc219314489b01f1b5a48639c, type: 3}
      propertyPath: m_CastShadows
      value: 0
      objectReference: {fileID: 0}
    - target: {fileID: 2300000, guid: 52a80cadc219314489b01f1b5a48639c, type: 3}
      propertyPath: m_LightProbeUsage
      value: 0
      objectReference: {fileID: 0}
    - target: {fileID: 2300000, guid: 52a80cadc219314489b01f1b5a48639c, type: 3}
      propertyPath: m_Materials.Array.data[0]
      value: 
      objectReference: {fileID: 2100000, guid: 60c22c2cc1c23a341911b5d9a861c24f, type: 2}
    m_RemovedComponents: []
  m_SourcePrefab: {fileID: 100100000, guid: 52a80cadc219314489b01f1b5a48639c, type: 3}
--- !u!1 &1198798686
GameObject:
  m_ObjectHideFlags: 0
  m_CorrespondingSourceObject: {fileID: 100002, guid: 5e9e851c0e142814dac026a256ba2ac0,
    type: 2}
  m_PrefabInstance: {fileID: 0}
  m_PrefabAsset: {fileID: 0}
  serializedVersion: 6
  m_Component:
  - component: {fileID: 1198798687}
  - component: {fileID: 1198798689}
  - component: {fileID: 1198798688}
  - component: {fileID: 1198798691}
  - component: {fileID: 1198798692}
  - component: {fileID: 1198798690}
  m_Layer: 0
  m_Name: Camera
  m_TagString: MainCamera
  m_Icon: {fileID: 0}
  m_NavMeshLayer: 0
  m_StaticEditorFlags: 0
  m_IsActive: 0
--- !u!4 &1198798687
Transform:
  m_ObjectHideFlags: 0
  m_CorrespondingSourceObject: {fileID: 400002, guid: 5e9e851c0e142814dac026a256ba2ac0,
    type: 2}
  m_PrefabInstance: {fileID: 0}
  m_PrefabAsset: {fileID: 0}
  m_GameObject: {fileID: 1198798686}
  m_LocalRotation: {x: 0.1265823, y: 0.466092, z: 0.067580156, w: -0.87302244}
  m_LocalPosition: {x: 182.0332, y: 5.4099526, z: 118.03236}
  m_LocalScale: {x: 1, y: 1, z: 1}
  m_Children:
  - {fileID: 916860963}
  m_Father: {fileID: 0}
  m_RootOrder: 0
  m_LocalEulerAnglesHint: {x: -16.5, y: 303.806, z: 0}
--- !u!81 &1198798688
AudioListener:
  m_ObjectHideFlags: 0
  m_CorrespondingSourceObject: {fileID: 8100000, guid: 5e9e851c0e142814dac026a256ba2ac0,
    type: 2}
  m_PrefabInstance: {fileID: 0}
  m_PrefabAsset: {fileID: 0}
  m_GameObject: {fileID: 1198798686}
  m_Enabled: 1
--- !u!20 &1198798689
Camera:
  m_ObjectHideFlags: 0
  m_CorrespondingSourceObject: {fileID: 2000000, guid: 5e9e851c0e142814dac026a256ba2ac0,
    type: 2}
  m_PrefabInstance: {fileID: 0}
  m_PrefabAsset: {fileID: 0}
  m_GameObject: {fileID: 1198798686}
  m_Enabled: 1
  serializedVersion: 2
  m_ClearFlags: 1
  m_BackGroundColor: {r: 0.19215687, g: 0.3019608, b: 0.4745098, a: 0.019607844}
  m_projectionMatrixMode: 1
  m_GateFitMode: 2
  m_FOVAxisMode: 0
  m_SensorSize: {x: 36, y: 24}
  m_LensShift: {x: 0, y: 0}
  m_FocalLength: 50
  m_NormalizedViewPortRect:
    serializedVersion: 2
    x: 0
    y: 0
    width: 1
    height: 1
  near clip plane: 0.3
  far clip plane: 1000
  field of view: 72.3
  orthographic: 0
  orthographic size: 5
  m_Depth: 0
  m_CullingMask:
    serializedVersion: 2
    m_Bits: 4294967295
  m_RenderingPath: 3
  m_TargetTexture: {fileID: 0}
  m_TargetDisplay: 0
  m_TargetEye: 3
  m_HDR: 1
  m_AllowMSAA: 1
  m_AllowDynamicResolution: 0
  m_ForceIntoRT: 0
  m_OcclusionCulling: 1
  m_StereoConvergence: 10
  m_StereoSeparation: 0.022
--- !u!114 &1198798690
MonoBehaviour:
  m_ObjectHideFlags: 0
  m_CorrespondingSourceObject: {fileID: 0}
  m_PrefabInstance: {fileID: 0}
  m_PrefabAsset: {fileID: 0}
  m_GameObject: {fileID: 1198798686}
  m_Enabled: 0
  m_EditorHideFlags: 0
  m_Script: {fileID: 11500000, guid: ff26db721962cdf4a8edcdfa9a767d2a, type: 3}
  m_Name: 
  m_EditorClassIdentifier: 
  profile: {fileID: 11400000, guid: 33f236cd005a70a46b6f1c8f0c9de499, type: 2}
--- !u!114 &1198798691
MonoBehaviour:
  m_ObjectHideFlags: 0
  m_CorrespondingSourceObject: {fileID: 0}
  m_PrefabInstance: {fileID: 0}
  m_PrefabAsset: {fileID: 0}
  m_GameObject: {fileID: 1198798686}
  m_Enabled: 1
  m_EditorHideFlags: 0
  m_Script: {fileID: 11500000, guid: 719810984abd7d3418ba367321c74c6a, type: 3}
  m_Name: 
  m_EditorClassIdentifier: 
  speedNormal: 3
  speedFast: 45
  mouseSensX: 2
  mouseSensY: 2
--- !u!124 &1198798692
Behaviour:
  m_ObjectHideFlags: 0
  m_CorrespondingSourceObject: {fileID: 0}
  m_PrefabInstance: {fileID: 0}
  m_PrefabAsset: {fileID: 0}
  m_GameObject: {fileID: 1198798686}
  m_Enabled: 1
--- !u!1001 &1266382045
PrefabInstance:
  m_ObjectHideFlags: 0
  serializedVersion: 2
  m_Modification:
    m_TransformParent: {fileID: 1198798687}
    m_Modifications:
    - target: {fileID: 4307756348346272, guid: 2003259857fd3f940bcd53bbb9131ca9, type: 3}
      propertyPath: m_RootOrder
      value: 0
      objectReference: {fileID: 0}
    - target: {fileID: 4307756348346272, guid: 2003259857fd3f940bcd53bbb9131ca9, type: 3}
      propertyPath: m_LocalPosition.x
      value: 0
      objectReference: {fileID: 0}
    - target: {fileID: 4307756348346272, guid: 2003259857fd3f940bcd53bbb9131ca9, type: 3}
      propertyPath: m_LocalPosition.y
      value: 0
      objectReference: {fileID: 0}
    - target: {fileID: 4307756348346272, guid: 2003259857fd3f940bcd53bbb9131ca9, type: 3}
      propertyPath: m_LocalPosition.z
      value: 0
      objectReference: {fileID: 0}
    - target: {fileID: 4307756348346272, guid: 2003259857fd3f940bcd53bbb9131ca9, type: 3}
      propertyPath: m_LocalRotation.w
      value: 1
      objectReference: {fileID: 0}
    - target: {fileID: 4307756348346272, guid: 2003259857fd3f940bcd53bbb9131ca9, type: 3}
      propertyPath: m_LocalRotation.x
      value: -0
      objectReference: {fileID: 0}
    - target: {fileID: 4307756348346272, guid: 2003259857fd3f940bcd53bbb9131ca9, type: 3}
      propertyPath: m_LocalRotation.y
      value: -0
      objectReference: {fileID: 0}
    - target: {fileID: 4307756348346272, guid: 2003259857fd3f940bcd53bbb9131ca9, type: 3}
      propertyPath: m_LocalRotation.z
      value: -0
      objectReference: {fileID: 0}
    m_RemovedComponents: []
  m_SourcePrefab: {fileID: 100100000, guid: 2003259857fd3f940bcd53bbb9131ca9, type: 3}
--- !u!1001 &1601330936
PrefabInstance:
  m_ObjectHideFlags: 0
  serializedVersion: 2
  m_Modification:
    m_TransformParent: {fileID: 499220631}
    m_Modifications:
    - target: {fileID: 4339898394216490, guid: 6c9e41e24d2bc6b488c927f43944457b, type: 3}
      propertyPath: m_RootOrder
      value: 0
      objectReference: {fileID: 0}
    - target: {fileID: 4339898394216490, guid: 6c9e41e24d2bc6b488c927f43944457b, type: 3}
      propertyPath: m_LocalScale.z
      value: 1
      objectReference: {fileID: 0}
    - target: {fileID: 4339898394216490, guid: 6c9e41e24d2bc6b488c927f43944457b, type: 3}
      propertyPath: m_LocalPosition.x
      value: 98.26
      objectReference: {fileID: 0}
    - target: {fileID: 4339898394216490, guid: 6c9e41e24d2bc6b488c927f43944457b, type: 3}
      propertyPath: m_LocalPosition.y
      value: 3
      objectReference: {fileID: 0}
    - target: {fileID: 4339898394216490, guid: 6c9e41e24d2bc6b488c927f43944457b, type: 3}
      propertyPath: m_LocalPosition.z
      value: 227.97
      objectReference: {fileID: 0}
    - target: {fileID: 4339898394216490, guid: 6c9e41e24d2bc6b488c927f43944457b, type: 3}
      propertyPath: m_LocalRotation.w
      value: 0.5504932
      objectReference: {fileID: 0}
    - target: {fileID: 4339898394216490, guid: 6c9e41e24d2bc6b488c927f43944457b, type: 3}
      propertyPath: m_LocalRotation.x
      value: -0.12827988
      objectReference: {fileID: 0}
    - target: {fileID: 4339898394216490, guid: 6c9e41e24d2bc6b488c927f43944457b, type: 3}
      propertyPath: m_LocalRotation.y
      value: -0.60524917
      objectReference: {fileID: 0}
    - target: {fileID: 4339898394216490, guid: 6c9e41e24d2bc6b488c927f43944457b, type: 3}
      propertyPath: m_LocalRotation.z
      value: 0.56051314
      objectReference: {fileID: 0}
    - target: {fileID: 4339898394216490, guid: 6c9e41e24d2bc6b488c927f43944457b, type: 3}
      propertyPath: m_LocalEulerAnglesHint.x
      value: 32.498
      objectReference: {fileID: 0}
    - target: {fileID: 4339898394216490, guid: 6c9e41e24d2bc6b488c927f43944457b, type: 3}
      propertyPath: m_LocalEulerAnglesHint.y
      value: -73.861
      objectReference: {fileID: 0}
    - target: {fileID: 4339898394216490, guid: 6c9e41e24d2bc6b488c927f43944457b, type: 3}
      propertyPath: m_LocalEulerAnglesHint.z
      value: 66.32
      objectReference: {fileID: 0}
    m_RemovedComponents: []
  m_SourcePrefab: {fileID: 100100000, guid: 6c9e41e24d2bc6b488c927f43944457b, type: 3}
--- !u!4 &1606271561 stripped
Transform:
  m_CorrespondingSourceObject: {fileID: 4339898394216490, guid: 7d39a68237432ea41ae92c75eb21dcf4,
    type: 3}
  m_PrefabInstance: {fileID: 749722265}
  m_PrefabAsset: {fileID: 0}
--- !u!1001 &1633852705
PrefabInstance:
  m_ObjectHideFlags: 0
  serializedVersion: 2
  m_Modification:
    m_TransformParent: {fileID: 870957649}
    m_Modifications:
    - target: {fileID: 100000, guid: 52a80cadc219314489b01f1b5a48639c, type: 3}
      propertyPath: m_Name
      value: shaft (7)
      objectReference: {fileID: 0}
    - target: {fileID: 100000, guid: 52a80cadc219314489b01f1b5a48639c, type: 3}
      propertyPath: m_IsActive
      value: 1
      objectReference: {fileID: 0}
    - target: {fileID: 400000, guid: 52a80cadc219314489b01f1b5a48639c, type: 3}
      propertyPath: m_RootOrder
      value: 7
      objectReference: {fileID: 0}
    - target: {fileID: 400000, guid: 52a80cadc219314489b01f1b5a48639c, type: 3}
      propertyPath: m_LocalScale.x
      value: 0.3326841
      objectReference: {fileID: 0}
    - target: {fileID: 400000, guid: 52a80cadc219314489b01f1b5a48639c, type: 3}
      propertyPath: m_LocalScale.y
      value: 0.87107897
      objectReference: {fileID: 0}
    - target: {fileID: 400000, guid: 52a80cadc219314489b01f1b5a48639c, type: 3}
      propertyPath: m_LocalScale.z
      value: 0.2635045
      objectReference: {fileID: 0}
    - target: {fileID: 400000, guid: 52a80cadc219314489b01f1b5a48639c, type: 3}
      propertyPath: m_LocalPosition.x
      value: 134.7
      objectReference: {fileID: 0}
    - target: {fileID: 400000, guid: 52a80cadc219314489b01f1b5a48639c, type: 3}
      propertyPath: m_LocalPosition.y
      value: -3.9
      objectReference: {fileID: 0}
    - target: {fileID: 400000, guid: 52a80cadc219314489b01f1b5a48639c, type: 3}
      propertyPath: m_LocalPosition.z
      value: 147.33
      objectReference: {fileID: 0}
    - target: {fileID: 400000, guid: 52a80cadc219314489b01f1b5a48639c, type: 3}
      propertyPath: m_LocalRotation.w
      value: 0.9124623
      objectReference: {fileID: 0}
    - target: {fileID: 400000, guid: 52a80cadc219314489b01f1b5a48639c, type: 3}
      propertyPath: m_LocalRotation.x
      value: 0.053804375
      objectReference: {fileID: 0}
    - target: {fileID: 400000, guid: 52a80cadc219314489b01f1b5a48639c, type: 3}
      propertyPath: m_LocalRotation.y
      value: 0.38504657
      objectReference: {fileID: 0}
    - target: {fileID: 400000, guid: 52a80cadc219314489b01f1b5a48639c, type: 3}
      propertyPath: m_LocalRotation.z
      value: 0.12750258
      objectReference: {fileID: 0}
    - target: {fileID: 400000, guid: 52a80cadc219314489b01f1b5a48639c, type: 3}
      propertyPath: m_LocalEulerAnglesHint.y
      value: 45.758003
      objectReference: {fileID: 0}
    - target: {fileID: 400000, guid: 52a80cadc219314489b01f1b5a48639c, type: 3}
      propertyPath: m_LocalEulerAnglesHint.z
      value: 15.909
      objectReference: {fileID: 0}
    - target: {fileID: 2300000, guid: 52a80cadc219314489b01f1b5a48639c, type: 3}
      propertyPath: m_CastShadows
      value: 0
      objectReference: {fileID: 0}
    - target: {fileID: 2300000, guid: 52a80cadc219314489b01f1b5a48639c, type: 3}
      propertyPath: m_LightProbeUsage
      value: 0
      objectReference: {fileID: 0}
    - target: {fileID: 2300000, guid: 52a80cadc219314489b01f1b5a48639c, type: 3}
      propertyPath: m_Materials.Array.data[0]
      value: 
      objectReference: {fileID: 2100000, guid: 60c22c2cc1c23a341911b5d9a861c24f, type: 2}
    m_RemovedComponents: []
  m_SourcePrefab: {fileID: 100100000, guid: 52a80cadc219314489b01f1b5a48639c, type: 3}
--- !u!1001 &1667119368
PrefabInstance:
  m_ObjectHideFlags: 0
  serializedVersion: 2
  m_Modification:
    m_TransformParent: {fileID: 870957649}
    m_Modifications:
    - target: {fileID: 100000, guid: 52a80cadc219314489b01f1b5a48639c, type: 3}
      propertyPath: m_Name
      value: shaft (3)
      objectReference: {fileID: 0}
    - target: {fileID: 100000, guid: 52a80cadc219314489b01f1b5a48639c, type: 3}
      propertyPath: m_IsActive
      value: 1
      objectReference: {fileID: 0}
    - target: {fileID: 400000, guid: 52a80cadc219314489b01f1b5a48639c, type: 3}
      propertyPath: m_RootOrder
      value: 3
      objectReference: {fileID: 0}
    - target: {fileID: 400000, guid: 52a80cadc219314489b01f1b5a48639c, type: 3}
      propertyPath: m_LocalScale.x
      value: 0.36443362
      objectReference: {fileID: 0}
    - target: {fileID: 400000, guid: 52a80cadc219314489b01f1b5a48639c, type: 3}
      propertyPath: m_LocalScale.y
      value: 0.87107897
      objectReference: {fileID: 0}
    - target: {fileID: 400000, guid: 52a80cadc219314489b01f1b5a48639c, type: 3}
      propertyPath: m_LocalScale.z
      value: 0.392443
      objectReference: {fileID: 0}
    - target: {fileID: 400000, guid: 52a80cadc219314489b01f1b5a48639c, type: 3}
      propertyPath: m_LocalPosition.x
      value: 154.53
      objectReference: {fileID: 0}
    - target: {fileID: 400000, guid: 52a80cadc219314489b01f1b5a48639c, type: 3}
      propertyPath: m_LocalPosition.y
      value: -3.9
      objectReference: {fileID: 0}
    - target: {fileID: 400000, guid: 52a80cadc219314489b01f1b5a48639c, type: 3}
      propertyPath: m_LocalPosition.z
      value: 127.96
      objectReference: {fileID: 0}
    - target: {fileID: 400000, guid: 52a80cadc219314489b01f1b5a48639c, type: 3}
      propertyPath: m_LocalRotation.w
      value: 0.9124623
      objectReference: {fileID: 0}
    - target: {fileID: 400000, guid: 52a80cadc219314489b01f1b5a48639c, type: 3}
      propertyPath: m_LocalRotation.x
      value: 0.053804375
      objectReference: {fileID: 0}
    - target: {fileID: 400000, guid: 52a80cadc219314489b01f1b5a48639c, type: 3}
      propertyPath: m_LocalRotation.y
      value: 0.38504657
      objectReference: {fileID: 0}
    - target: {fileID: 400000, guid: 52a80cadc219314489b01f1b5a48639c, type: 3}
      propertyPath: m_LocalRotation.z
      value: 0.12750258
      objectReference: {fileID: 0}
    - target: {fileID: 400000, guid: 52a80cadc219314489b01f1b5a48639c, type: 3}
      propertyPath: m_LocalEulerAnglesHint.y
      value: 45.758003
      objectReference: {fileID: 0}
    - target: {fileID: 400000, guid: 52a80cadc219314489b01f1b5a48639c, type: 3}
      propertyPath: m_LocalEulerAnglesHint.z
      value: 15.909
      objectReference: {fileID: 0}
    - target: {fileID: 2300000, guid: 52a80cadc219314489b01f1b5a48639c, type: 3}
      propertyPath: m_CastShadows
      value: 0
      objectReference: {fileID: 0}
    - target: {fileID: 2300000, guid: 52a80cadc219314489b01f1b5a48639c, type: 3}
      propertyPath: m_LightProbeUsage
      value: 0
      objectReference: {fileID: 0}
    - target: {fileID: 2300000, guid: 52a80cadc219314489b01f1b5a48639c, type: 3}
      propertyPath: m_Materials.Array.data[0]
      value: 
      objectReference: {fileID: 2100000, guid: 60c22c2cc1c23a341911b5d9a861c24f, type: 2}
    m_RemovedComponents: []
  m_SourcePrefab: {fileID: 100100000, guid: 52a80cadc219314489b01f1b5a48639c, type: 3}
--- !u!4 &1724387578 stripped
Transform:
  m_CorrespondingSourceObject: {fileID: 400000, guid: 52a80cadc219314489b01f1b5a48639c,
    type: 3}
  m_PrefabInstance: {fileID: 379598184}
  m_PrefabAsset: {fileID: 0}
--- !u!4 &1737556824 stripped
Transform:
  m_CorrespondingSourceObject: {fileID: 400000, guid: 52a80cadc219314489b01f1b5a48639c,
    type: 3}
  m_PrefabInstance: {fileID: 1633852705}
  m_PrefabAsset: {fileID: 0}
--- !u!4 &1924164511 stripped
Transform:
  m_CorrespondingSourceObject: {fileID: 4339898394216490, guid: 7d39a68237432ea41ae92c75eb21dcf4,
    type: 3}
  m_PrefabInstance: {fileID: 274759607}
  m_PrefabAsset: {fileID: 0}
--- !u!1001 &1933427603
PrefabInstance:
  m_ObjectHideFlags: 0
  serializedVersion: 2
  m_Modification:
    m_TransformParent: {fileID: 870957649}
    m_Modifications:
    - target: {fileID: 100000, guid: 52a80cadc219314489b01f1b5a48639c, type: 3}
      propertyPath: m_Name
      value: shaft (8)
      objectReference: {fileID: 0}
    - target: {fileID: 100000, guid: 52a80cadc219314489b01f1b5a48639c, type: 3}
      propertyPath: m_IsActive
      value: 1
      objectReference: {fileID: 0}
    - target: {fileID: 400000, guid: 52a80cadc219314489b01f1b5a48639c, type: 3}
      propertyPath: m_RootOrder
      value: 8
      objectReference: {fileID: 0}
    - target: {fileID: 400000, guid: 52a80cadc219314489b01f1b5a48639c, type: 3}
      propertyPath: m_LocalScale.x
      value: 0.3326841
      objectReference: {fileID: 0}
    - target: {fileID: 400000, guid: 52a80cadc219314489b01f1b5a48639c, type: 3}
      propertyPath: m_LocalScale.y
      value: 0.87107897
      objectReference: {fileID: 0}
    - target: {fileID: 400000, guid: 52a80cadc219314489b01f1b5a48639c, type: 3}
      propertyPath: m_LocalScale.z
      value: 0.2635045
      objectReference: {fileID: 0}
    - target: {fileID: 400000, guid: 52a80cadc219314489b01f1b5a48639c, type: 3}
      propertyPath: m_LocalPosition.x
      value: 133.09
      objectReference: {fileID: 0}
    - target: {fileID: 400000, guid: 52a80cadc219314489b01f1b5a48639c, type: 3}
      propertyPath: m_LocalPosition.y
      value: -3.9
      objectReference: {fileID: 0}
    - target: {fileID: 400000, guid: 52a80cadc219314489b01f1b5a48639c, type: 3}
      propertyPath: m_LocalPosition.z
      value: 174.62
      objectReference: {fileID: 0}
    - target: {fileID: 400000, guid: 52a80cadc219314489b01f1b5a48639c, type: 3}
      propertyPath: m_LocalRotation.w
      value: 0.9124623
      objectReference: {fileID: 0}
    - target: {fileID: 400000, guid: 52a80cadc219314489b01f1b5a48639c, type: 3}
      propertyPath: m_LocalRotation.x
      value: 0.053804375
      objectReference: {fileID: 0}
    - target: {fileID: 400000, guid: 52a80cadc219314489b01f1b5a48639c, type: 3}
      propertyPath: m_LocalRotation.y
      value: 0.38504657
      objectReference: {fileID: 0}
    - target: {fileID: 400000, guid: 52a80cadc219314489b01f1b5a48639c, type: 3}
      propertyPath: m_LocalRotation.z
      value: 0.12750258
      objectReference: {fileID: 0}
    - target: {fileID: 400000, guid: 52a80cadc219314489b01f1b5a48639c, type: 3}
      propertyPath: m_LocalEulerAnglesHint.y
      value: 45.758003
      objectReference: {fileID: 0}
    - target: {fileID: 400000, guid: 52a80cadc219314489b01f1b5a48639c, type: 3}
      propertyPath: m_LocalEulerAnglesHint.z
      value: 15.909
      objectReference: {fileID: 0}
    - target: {fileID: 2300000, guid: 52a80cadc219314489b01f1b5a48639c, type: 3}
      propertyPath: m_CastShadows
      value: 0
      objectReference: {fileID: 0}
    - target: {fileID: 2300000, guid: 52a80cadc219314489b01f1b5a48639c, type: 3}
      propertyPath: m_LightProbeUsage
      value: 0
      objectReference: {fileID: 0}
    - target: {fileID: 2300000, guid: 52a80cadc219314489b01f1b5a48639c, type: 3}
      propertyPath: m_Materials.Array.data[0]
      value: 
      objectReference: {fileID: 2100000, guid: 60c22c2cc1c23a341911b5d9a861c24f, type: 2}
    m_RemovedComponents: []
  m_SourcePrefab: {fileID: 100100000, guid: 52a80cadc219314489b01f1b5a48639c, type: 3}
--- !u!1 &2106961929
GameObject:
  m_ObjectHideFlags: 0
  m_CorrespondingSourceObject: {fileID: 0}
  m_PrefabInstance: {fileID: 0}
  m_PrefabAsset: {fileID: 0}
  serializedVersion: 6
  m_Component:
  - component: {fileID: 2106961931}
  - component: {fileID: 2106961930}
  m_Layer: 0
  m_Name: wind
  m_TagString: Untagged
  m_Icon: {fileID: 0}
  m_NavMeshLayer: 0
  m_StaticEditorFlags: 0
  m_IsActive: 1
--- !u!182 &2106961930
WindZone:
  m_ObjectHideFlags: 0
  m_CorrespondingSourceObject: {fileID: 0}
  m_PrefabInstance: {fileID: 0}
  m_PrefabAsset: {fileID: 0}
  m_GameObject: {fileID: 2106961929}
  m_Enabled: 1
  m_Mode: 0
  m_Radius: 20
  m_WindMain: 0.21
  m_WindTurbulence: 0.28
  m_WindPulseMagnitude: 0.5
  m_WindPulseFrequency: 0.01
--- !u!4 &2106961931
Transform:
  m_ObjectHideFlags: 0
  m_CorrespondingSourceObject: {fileID: 0}
  m_PrefabInstance: {fileID: 0}
  m_PrefabAsset: {fileID: 0}
  m_GameObject: {fileID: 2106961929}
  m_LocalRotation: {x: 0, y: 0, z: 0, w: 1}
  m_LocalPosition: {x: 0, y: 0, z: 0}
  m_LocalScale: {x: 1, y: 1, z: 1}
  m_Children: []
  m_Father: {fileID: 0}
  m_RootOrder: 3
  m_LocalEulerAnglesHint: {x: 0, y: 0, z: 0}
--- !u!4 &2115914665 stripped
Transform:
  m_CorrespondingSourceObject: {fileID: 400000, guid: 52a80cadc219314489b01f1b5a48639c,
    type: 3}
  m_PrefabInstance: {fileID: 794036590}
  m_PrefabAsset: {fileID: 0}
